[
    {
        "id": "e859c3fb-baa2-4839-9d6f-ff0f88c1ce34",
        "name": "Binding",
        "description": "There are 5 binding types to know the value of THIS",
        "created": "2022-12-26T23:54:37+00:00",
        "subjectId": "5be8a1d6-bc9d-4a7c-b4a9-f7d1a3f805a5"
    },
    {
        "id": "572269fd-50b6-43af-87e9-d21421d7234f",
        "name": "Basic concepts",
        "description": "Basic Javascript concepts",
        "created": "2022-12-26T23:54:37+00:00",
        "subjectId": "5be8a1d6-bc9d-4a7c-b4a9-f7d1a3f805a5"
    },
    {
        "id": "7068943b-4b0a-41d2-9089-f128ed2ecbfd",
        "name": "Access Modifiers",
        "description": "All types and type members have an accessibility level. The accessibility level controls whether they can be used from other code in your assembly or other assemblies.",
        "created": "2022-12-26T23:54:37+00:00",
        "subjectId": "bdaccb86-75d2-4156-87a9-5dfe007feb92"
    },
    {
        "id": "c3379254-eaef-4af4-8ec6-95b3fbb25e3b",
        "name": "Object-oriented programming",
        "description": "Object-Oriented Programming is a strategy that provides some principles for developing applications or developing software. It is a methodology.",
        "created": "2022-12-26T23:54:37+00:00",
        "subjectId": "bdaccb86-75d2-4156-87a9-5dfe007feb92"
    },
    {
        "id": "70100615-b223-4393-8b42-75489bf3b9fd",
        "name": "Asynchronism",
        "description": "The term asynchronous refers to two or more objects or events not existing or happening at the same time (or multiple related things happening without waiting for the previous one to complete). In computing, the word asynchronous is used in two major contexts.",
        "created": "2022-12-26T23:54:37+00:00",
        "subjectId": "f0f1ff7b-0168-48d7-b818-aa10c796f0a4"
    }
]
