[
    {
        "id": "5be8a1d6-bc9d-4a7c-b4a9-f7d1a3f805a5",
        "name": "Javascript",
        "category": 2,
        "created": "2023-01-16T23:54:37+00:00"
    },
    {
        "id": "bdaccb86-75d2-4156-87a9-5dfe007feb92",
        "name": "OOP",
        "category": 1,
        "created": "2022-12-26T23:54:37+00:00"
    },
    {
        "id": "f0f1ff7b-0168-48d7-b818-aa10c796f0a4",
        "name": "Asynchronism",
        "category": 2,
        "created": "2022-12-26T23:54:37+00:00"
    }
]
